avg_movie_rating;avg_rating_by_roles;id;person_id;created_at;updated_at
8.4;5.8;0efd232b-fa67-4cd3-bab9-c1e2949edb1b;0efd232b-fa67-4cd3-bab9-c1e2949edb1b;2018-12-26T12:00:00;2019-12-26T12:00:00
5.4;1.8;afa77122-30ce-4ba5-ae04-80ff1166a870;afa77122-30ce-4ba5-ae04-80ff1166a870;2018-12-26T12:00:00;2019-12-26T12:00:00
4.4;9.8;fcfef66e-caf4-45c5-bee7-3c7c0fb67722;fcfef66e-caf4-45c5-bee7-3c7c0fb67722;2018-12-26T12:00:00;2019-12-26T12:00:00